{
  "base_url": "/user/charbeltrad-examen-mt15-7t7wgsh0/",
  "hostname": "0.0.0.0",
  "notebook_dir": "/home/jovyan",
  "password": false,
  "pid": 19,
  "port": 8888,
  "secure": false,
  "sock": "",
  "token": "eWpmt2uRTsSQkq2Epe8jqA",
  "url": "http://0.0.0.0:8888/user/charbeltrad-examen-mt15-7t7wgsh0/"
}